Analyser et visualiser des données de flux
…
```
## Warning in replace_with(out, !condition & !is.na(condition), false,
## "`false`"): NAs introduits lors de la conversion automatique
```

```
## # A tibble: 722 × 2
##    ID_REFA_LDA           n
##          <chr>       <dbl>
## 1       411281   486.47802
## 2       411284   914.89011
## 3       412687  7045.81319
## 4       412697 18733.07692
## 5       412992  7061.30220
## 6       415852 21915.45055
## 7        59403    48.36257
## 8        59420    20.37778
## 9        59429    15.56069
## 10       59447    33.12778
## # ... with 712 more rows
```
…
